400455 793998 509
484563 745238 509
749566 710579 424
138973 150052 375
226125 461223 449
690793 394538 509
252305 398953 441
93901 237160 443
569567 425102 470
520417 203880 470
473530 357531 449
239726 409537 441
108267 481773 449
174655 987252 525
539078 921520 525
987919 282357 525
726354 203161 509
630393 485492 509
328023 220423 443
779628 707371 468
563400 984315 525
82780 921209 525
871730 38604 525
837243 697486 504
324011 707849 509
328204 786505 509
49867 850388 525
740840 937001 525
869927 724752 525
33180 903616 525
527522 875212 525
515698 510042 470
191092 264000 443
131682 534285 470
27104 764522 509
291674 246013 407
508972 661732 509
374251 555393 470
37828 119183 354
12739 874793 525
753335 462547 509
678947 159403 509
519309 181512 470
182323 8792 383
443752 720885 509
345611 550608 470
858410 350315 525
529305 653329 509
607759 772506 509
390289 465138 449
343274 725018 509
839113 481243 525
91138 795106 509
234749 604208 470
329828 489065 449
839447 602448 525
219910 240079 443
60656 490289 449
691560 588619 509
187888 63325 383
648276 62541 509
128839 52171 354
8287 702360 509
544718 593628 452
138350 554253 470
724641 122825 509
874957 892911 445
551610 392467 470
823253 498967 509
218021 538878 470
679413 8592 509
658932 484227 509
946403 491605 525
560968 668002 509
738719 990539 525
250538 426191 449
311290 127304 443
836566 660940 504
889739 294161 525
282691 678066 509
717585 78600 509
574730 325913 470
391150 111932 443
306369 607205 470
158856 275077 443
173333 828208 509
994607 915965 507
98035 146885 375
695743 910594 525
999010 533387 525
550810 562598 421
486586 635287 509
110631 26501 354
210077 461617 449
286353 691019 509
194968 433199 449
352819 48066 443
761665 897145 525
806799 303135 509
304984 494620 449
546193 72823 470
536451 958958 525
809577 247859 509
594739 982265 525
429770 580477 470
127995 803378 509
327449 283462 389
634142 101870 509
508526 275883 449
765760 699086 504
607470 947928 525
869165 72067 525
539327 502754 470
533592 692921 509
265762 806904 509
985196 11282 525
469079 604060 470
365972 10817 443
900534 849134 445
751374 438014 509
640513 656341 416
560840 736082 509
41862 214225 383
505591 812163 509
676662 565480 509
203267 703173 509
228169 431173 449
701275 724977 504
408485 142586 443
614879 497694 470
812136 18555 509
114741 208815 383
886866 58793 525
424523 387620 449
215563 837904 525
695872 121552 509
365712 349164 410
608350 643603 509
689990 597851 509
632253 684259 442
995071 764544 525
923497 646364 525
838364 496223 525
782336 531770 509
302441 447519 449
621874 461421 470
664530 225387 509
437906 147463 449
175309 670571 509
425466 158067 449
238792 483100 449
872300 72945 525
87140 719429 509
48735 286239 443
726883 68113 509
146270 526643 470
960061 307786 525
539265 997271 525
774410 419342 509
41505 783380 509
671304 192712 509
119962 509689 449
636157 927413 525
515434 582602 452
299494 431533 449
396035 118197 443
536048 959588 525
238894 105104 443
278423 339296 389
798765 104470 509
290850 224272 443
908028 657541 525
95435 968662 525
31008 95544 351
637401 5143 509
323506 485868 449
598376 240310 470
338413 961541 525
457171 378493 449
949601 64439 525
455101 27288 449
345457 540624 470
973335 646274 525
732136 9579 509
942452 99188 525
90057 236491 443
450222 413353 418
965661 866665 507
980798 732481 525
760996 965190 525
906931 530599 525
154757 892128 525
357719 698408 509
789972 422410 509
829892 292130 509
701643 783442 504
675603 59967 509
392856 134403 443
943810 767787 525
166305 239502 443
