948093 610084 525
309241 122253 443
925604 637716 525
218350 148639 386
119965 319120 443
877932 106421 525
242904 741691 509
751536 114292 509
234081 954250 525
570353 478620 470
92338 662927 509
469793 671909 509
778831 157757 509
660834 832337 504
359126 267554 441
717635 380621 509
360185 625975 470
608049 804190 509
52957 293230 443
822762 481801 509
889543 864014 445
153179 7165 375
181627 651198 509
384664 937062 525
97724 314506 443
122776 23971 354
575372 799475 509
208109 259951 443
244286 616963 470
823842 399134 509
306509 380822 441
923980 452208 525
729518 636481 504
759012 407017 509
385115 490134 449
594188 107053 470
891977 728221 525
850136 510177 525
428796 367479 449
804574 432622 509
248526 914314 525
930809 874339 476
76782 891562 525
47012 104497 351
495843 294001 449
842272 64491 525
301488 21977 443
871465 507578 525
716333 812261 468
984378 581917 525
885460 80135 525
444600 841518 525
897954 559821 525
657911 758358 504
522759 802727 509
167805 890389 525
230115 995441 525
442598 468122 444
3317 824116 509
332485 553955 470
926367 2409 525
601233 273387 470
550961 605832 434
433424 2277 449
633480 45038 509
243972 59052 443
540688 375859 470
891724 351373 525
72786 521838 470
201276 889824 525
769994 530752 509
579218 959952 525
285069 914692 525
858770 320260 525
603228 315895 470
300202 163420 443
215768 974126 525
822303 316383 509
895829 529063 525
57257 632193 509
731304 177025 509
991854 956595 458
932091 165652 525
211817 218210 386
135131 305764 443
687698 574741 509
675292 854549 525
441690 192212 449
341624 645364 509
860816 28299 525
245877 239477 368
329036 525588 470
707548 669515 504
295070 908207 525
821259 814795 450
133712 931637 525
424867 564882 470
498259 804184 509
509295 63920 449
926806 822771 525
229692 928149 525
686600 631420 442
664062 618475 509
382277 506642 449
707288 495889 509
754696 969232 525
550278 9062 470
531876 263137 470
829407 279399 509
213337 288995 443
451818 469767 444
320537 667277 509
785129 543243 509
937147 603510 525
330496 518511 470
278307 92279 443
904467 762620 525
567848 984111 525
759039 743378 424
44555 983804 525
991488 298642 525
491029 548474 470
895058 514113 525
462901 506248 426
526032 465239 470
952173 790577 525
822715 377778 509
437381 451986 400
857769 893133 445
195088 116421 383
522883 872434 525
685040 659663 442
347329 856642 525
520002 187360 470
711680 81230 509
501022 813604 509
761054 541435 509
365679 466057 449
352071 20864 443
368059 541066 470
128154 770207 509
484326 100676 449
783609 11972 509
711521 111848 509
760393 294483 509
364140 65512 443
715099 963610 525
855815 667765 525
919758 252515 525
832501 747950 468
493201 335701 449
236997 671102 509
162552 413600 449
840863 11418 525
885086 433756 525
45505 934388 525
641163 205692 509
432746 908664 525
631899 998317 525
931980 596169 525
167074 674170 509
312035 705599 509
299116 452573 449
50325 578822 470
634978 260339 509
45814 662913 509
689898 961363 525
128999 7034 354
896641 150057 525
965829 842082 507
909211 969505 507
613245 457072 470
725346 222287 509
431675 612609 470
345643 620431 470
83911 621798 470
837339 910142 525
67151 247155 443
12004 382482 443
885451 366912 525
682191 559980 509
443417 984007 525
827668 820006 450
232469 150302 443
600006 723737 509
487939 340134 449
369461 897785 525
24333 378399 443
875689 108365 525
490072 787617 509
566490 40179 470
921207 756982 525
825437 754164 468
226118 729469 509
410579 971405 525
758217 887454 525
852503 883804 432
529322 951939 525
621673 876683 525
929140 247497 525
